<?xml version="1.0" encoding="utf-8"?>
<!-- Generator: Adobe Illustrator 22.0.0, SVG Export Plug-In . SVG Version: 6.00 Build 0)  -->
<svg version="1.1" id="Layer_1" xmlns="http://www.w3.org/2000/svg" xmlns:xlink="http://www.w3.org/1999/xlink" x="0px" y="0px"
	 viewBox="0 0 177 33.2" style="enable-background:new 0 0 177 33.2;" xml:space="preserve">
<style type="text/css">
	.st0{fill:#424242;}
	.st1{fill:#A3A3A3;}
	.st2{opacity:0.85;fill:#E23B3B;enable-background:new    ;}
	.st3{opacity:0.85;fill:#6ACC2B;enable-background:new    ;}
	.st4{opacity:0.85;fill:#33A2BC;enable-background:new    ;}
</style>
<path class="st0" d="M14.6,6.9v19h-4.3v-7.5h-6v7.5H0v-19h4.3v7.3h6V6.9H14.6z"/>
<path class="st0" d="M30.6,12.3v13.6h-4.1v-1.3c-0.7,1-2.1,1.7-3.9,1.7c-2.7,0-5.1-2-5.1-5.6v-8.3h4.1V20c0,1.7,1.1,2.5,2.4,2.5
	c1.5,0,2.5-0.9,2.5-2.8v-7.4H30.6z"/>
<path class="st0" d="M40.5,22.6c1.1,0,2.1-0.4,2.6-1l3.3,1.9c-1.3,1.8-3.3,2.8-5.9,2.8c-4.6,0-7.5-3.1-7.5-7.2s2.9-7.2,7.2-7.2
	c4,0,6.9,3.1,6.9,7.2c0,0.6-0.1,1.1-0.2,1.6h-9.6C37.7,22.1,39,22.6,40.5,22.6z M43,17.7c-0.4-1.6-1.7-2.1-2.9-2.1
	c-1.5,0-2.6,0.8-3,2.1H43z"/>
<path class="st1" d="M61.8,8.2h-6v17.6h-1.5V8.2h-6V6.9h13.4V8.2z"/>
<path class="st1" d="M76,17.4v8.4h-1.4v-8.4c0-2.5-1.4-4.1-4-4.1c-2.7,0-4.7,1.7-4.7,5.4v7.2h-1.4v-19h1.4v8c1-2,2.8-2.9,4.9-2.9
	C74,12,76,14.1,76,17.4z"/>
<path class="st1" d="M92.6,19.1c0,0.2,0,0.4,0,0.7H80.3c0.3,3.1,2.7,5.1,5.7,5.1c2.2,0,3.9-1,4.7-2.5l1.2,0.7
	c-1.1,1.8-3.2,3.1-5.9,3.1c-4.2,0-7.1-3-7.1-7.1c0-4,2.9-7.1,7-7.1C90.1,12,92.6,15.4,92.6,19.1z M80.3,18.5h10.9
	c-0.3-3.3-2.6-5.2-5.3-5.2C82.8,13.3,80.6,15.4,80.3,18.5z"/>
<path class="st1" d="M115.2,17.3v8.6h-1.4v-8.6c0-2.6-1.5-4-3.6-4c-2.3,0-4.1,1.5-4.1,5v7.6h-1.4v-8.6c0-2.6-1.4-4-3.5-4
	c-2.2,0-4.2,1.5-4.2,5v7.6h-1.4V12.3h1.4v2.3c1-1.9,2.6-2.6,4.4-2.6c2,0,3.5,1,4.2,2.8c1-1.9,2.7-2.8,4.5-2.8
	C113.2,12,115.2,13.9,115.2,17.3z"/>
<path class="st1" d="M131.8,19.1c0,0.2,0,0.4,0,0.7h-12.3c0.3,3.1,2.7,5.1,5.7,5.1c2.2,0,3.9-1,4.7-2.5l1.2,0.7
	c-1.1,1.8-3.2,3.1-5.9,3.1c-4.2,0-7.1-3-7.1-7.1c0-4,2.9-7.1,7-7.1C129.3,12,131.8,15.4,131.8,19.1z M119.5,18.5h10.9
	c-0.3-3.3-2.6-5.2-5.3-5.2C122.1,13.3,119.8,15.4,119.5,18.5z"/>
<path class="st1" d="M143.6,22.3c0,2.2-2,3.9-4.9,3.9c-2.7,0-4.5-1.3-5.2-3l1.2-0.7c0.5,1.5,2,2.4,4,2.4c1.9,0,3.5-0.8,3.5-2.6
	c0-3.7-8.2-1.6-8.2-6.5c0-2.1,1.8-3.9,4.6-3.9c2.2,0,3.9,1.1,4.6,2.7l-1.1,0.7c-0.6-1.4-2-2.1-3.5-2.1c-1.8,0-3.3,0.9-3.3,2.6
	C135.4,19.5,143.6,17.3,143.6,22.3z"/>
<ellipse class="st2" cx="157.6" cy="10.9" rx="9" ry="9"/>
<ellipse class="st3" cx="157.6" cy="22.1" rx="9" ry="9"/>
<ellipse class="st4" cx="167.4" cy="16.5" rx="9" ry="9"/>
</svg>
