<?xml version="1.0" encoding="utf-8"?>
<!-- Generator: Adobe Illustrator 21.0.0, SVG Export Plug-In . SVG Version: 6.00 Build 0)  -->
<svg version="1.1" id="Layer_1" xmlns="http://www.w3.org/2000/svg" xmlns:xlink="http://www.w3.org/1999/xlink" x="0px" y="0px"
	 viewBox="0 0 128 128" style="enable-background:new 0 0 128 128;" xml:space="preserve">
<style type="text/css">
	.st0{fill:url(#SVGID_1_);}
	.st1{fill:url(#SVGID_2_);}
	.st2{fill:url(#SVGID_3_);}
	.st3{fill:url(#SVGID_4_);}
	.st4{fill:url(#SVGID_5_);}
	.st5{fill:url(#SVGID_6_);}
	.st6{fill:url(#SVGID_7_);}
</style>
<g>
	<g>
		<linearGradient id="SVGID_1_" gradientUnits="userSpaceOnUse" x1="105.0951" y1="93.9407" x2="89.0414" y2="34.0276">
			<stop  offset="6.940105e-07" style="stop-color:#A8A8A8"/>
			<stop  offset="1" style="stop-color:#BFBFBF"/>
		</linearGradient>
		<path class="st0" d="M84.4,90.3c0-0.1,0-0.4,0-0.5l7.1-52.7c0.4-3.4,4.9-6,9.8-5.7s8.7,3.4,8.3,6.8l-7.1,52.7
			c-0.4,3.4-4.9,6-9.8,5.7C88,96.3,84.4,93.6,84.4,90.3z"/>
	</g>
	<g>
		<linearGradient id="SVGID_2_" gradientUnits="userSpaceOnUse" x1="72.2827" y1="93.9244" x2="56.229" y2="34.0113">
			<stop  offset="6.940105e-07" style="stop-color:#A8A8A8"/>
			<stop  offset="1" style="stop-color:#BFBFBF"/>
		</linearGradient>
		<path class="st1" d="M51.7,90.3c0-0.1,0-0.4,0-0.5l7-52.7c0.4-3.4,4.9-6,9.8-5.7s8.7,3.4,8.3,6.8l-7.1,52.7
			c-0.4,3.4-4.9,6-9.8,5.7C55.1,96.3,51.7,93.6,51.7,90.3z"/>
	</g>
	<g>
		<linearGradient id="SVGID_3_" gradientUnits="userSpaceOnUse" x1="31.4689" y1="96.6055" x2="31.4689" y2="31.3651">
			<stop  offset="6.940105e-07" style="stop-color:#A8A8A8"/>
			<stop  offset="1" style="stop-color:#BFBFBF"/>
		</linearGradient>
		<path class="st2" d="M18.8,90.3c0-0.1,0-0.4,0-0.5l7.1-52.7c0.4-3.4,4.9-6,9.8-5.7s8.7,3.4,8.3,6.8L37,90.9
			c-0.4,3.4-4.9,6-9.8,5.7C22.4,96.3,18.8,93.6,18.8,90.3z"/>
	</g>
	<g>
		<linearGradient id="SVGID_4_" gradientUnits="userSpaceOnUse" x1="109.627" y1="73.7637" x2="109.627" y2="31.4275">
			<stop  offset="5.948662e-07" style="stop-color:#FFFFFF"/>
			<stop  offset="0.5745" style="stop-color:#DCDCDC"/>
			<stop  offset="1" style="stop-color:#BFBFBF"/>
		</linearGradient>
		<path class="st3" d="M91.7,37.7c0-2.5,2.2-4.8,5.5-5.7c4.5-1.4,9.8,0.1,11.9,3.4l17.9,29.7c1.9,3.1-0.1,6.8-4.9,8.2
			c-4.5,1.4-9.8-0.1-11.9-3.4L92.2,40.1C91.8,39.3,91.7,38.5,91.7,37.7z"/>
	</g>
	<g>
		<linearGradient id="SVGID_5_" gradientUnits="userSpaceOnUse" x1="18.7151" y1="54.3411" x2="18.7151" y2="96.5453">
			<stop  offset="5.948662e-07" style="stop-color:#FFFFFF"/>
			<stop  offset="0.5745" style="stop-color:#DCDCDC"/>
			<stop  offset="1" style="stop-color:#BFBFBF"/>
		</linearGradient>
		<path class="st4" d="M0.4,60.6c0-2.5,1.9-4.8,5.5-5.7c4.5-1.4,9.8,0.1,11.9,3.3l18.6,29.7c1.9,3.1-0.1,6.8-4.8,8.2
			s-9.8-0.1-11.9-3.3L1,63C0.6,62.3,0.4,61.4,0.4,60.6z"/>
	</g>
	<g>
		<linearGradient id="SVGID_6_" gradientUnits="userSpaceOnUse" x1="89.7219" y1="98.0881" x2="71.4753" y2="29.991">
			<stop  offset="5.948662e-07" style="stop-color:#FFFFFF"/>
			<stop  offset="0.5745" style="stop-color:#DCDCDC"/>
			<stop  offset="1" style="stop-color:#BFBFBF"/>
		</linearGradient>
		<path class="st5" d="M58.7,37.7c0-2.6,2.3-5,6.1-5.9c4.8-1.1,9.8,0.7,11.5,4L102,88.4c1.6,3.3-1,6.8-5.7,7.9
			c-4.8,1.1-9.8-0.7-11.5-4L59.2,39.7C58.8,39,58.7,38.3,58.7,37.7z"/>
	</g>
	<g>
		<linearGradient id="SVGID_7_" gradientUnits="userSpaceOnUse" x1="56.8486" y1="98.0881" x2="38.6021" y2="29.991">
			<stop  offset="5.948662e-07" style="stop-color:#FFFFFF"/>
			<stop  offset="0.5745" style="stop-color:#DCDCDC"/>
			<stop  offset="1" style="stop-color:#BFBFBF"/>
		</linearGradient>
		<path class="st6" d="M25.8,37.7c0-2.6,2.3-5,6.1-5.9c4.8-1.1,9.8,0.7,11.5,4l25.8,52.7c1.6,3.3-1,6.8-5.7,7.9
			c-4.8,1.1-9.8-0.7-11.5-4L26.3,39.7C25.9,39,25.8,38.3,25.8,37.7z"/>
	</g>
</g>
</svg>
